[
  {
    "email": "admin@puppyplace.com",
    "password": "MorePuppies",
    "profile": {
      "name": "Admin"
    }
  },
  {
    "email": "admin@admin.com",
    "password": "Summer_1",
    "profile": {
      "name": "Admin2"
    }
  }
]